task4/f1_full.vcd
$version Generated by VerilatedVcd $end
$date Wed Nov  8 01:57:57 2023 $end
$timescale 1ps $end

 $scope module TOP $end
  $var wire 16 , N [15:0] $end
  $var wire  1 + clk $end
  $var wire  8 ( data_out [7:0] $end
  $var wire  1 ) en $end
  $var wire  1 * rst $end
  $var wire  1 - trigger $end
  $scope module top $end
   $var wire 16 , N [15:0] $end
   $var wire 32 4 WIDTH [31:0] $end
   $var wire  1 + clk $end
   $var wire  1 / cmd_delay $end
   $var wire  1 . cmd_seq $end
   $var wire  8 ( data_out [7:0] $end
   $var wire  1 ) en $end
   $var wire  1 * rst $end
   $var wire  7 0 seed [7:1] $end
   $var wire  1 $ tick $end
   $var wire  1 # time_out $end
   $var wire  1 - trigger $end
   $scope module del $end
    $var wire 32 5 WIDTH [31:0] $end
    $var wire  1 + clk $end
    $var wire  7 % count [6:0] $end
    $var wire 32 & current_state [31:0] $end
    $var wire  7 0 n [6:0] $end
    $var wire 32 1 next_state [31:0] $end
    $var wire  1 * rst $end
    $var wire  1 # time_out $end
    $var wire  1 / trigger $end
   $upscope $end
   $scope module lfsr $end
    $var wire  1 + clk $end
    $var wire  7 0 data_out [7:1] $end
    $var wire  1 ) en $end
    $var wire  1 * rst $end
    $var wire  7 0 sreg [7:1] $end
   $upscope $end
   $scope module lights $end
    $var wire  1 + clk $end
    $var wire  1 / cmd_delay $end
    $var wire  1 . cmd_seq $end
    $var wire  8 ( data_out [7:0] $end
    $var wire  1 2 en $end
    $var wire  1 * rst $end
    $var wire  8 3 sreg [7:0] $end
    $var wire  1 - trigger $end
   $upscope $end
   $scope module oneSec $end
    $var wire 16 , N [15:0] $end
    $var wire 32 4 WIDTH [31:0] $end
    $var wire  1 + clk $end
    $var wire 16 ' count [15:0] $end
    $var wire  1 . en $end
    $var wire  1 * rst $end
    $var wire  1 $ tick $end
   $upscope $end
  $upscope $end
 $upscope $end
$enddefinitions $end


#0
0#
0$
b0000000 %
b00000000000000000000000000000000 &
b0000000000000000 '
b00000000 (
1)
0*
1+
b0000000000110010 ,
0-
0.
0/
b0000000 0
b00000000000000000000000000000000 1
02
b00000000 3
b00000000000000000000000000010000 4
b00000000000000000000000000000111 5
#1
0+
#2
b1111111 %
0)
1*
1+
b0000000000001000 ,
#3
b00000001 (
0+
b0000001 0
b00000001 3
#4
b0000000 %
b0000000000001000 '
1+
b0000000000011101 ,
#5
0+
#6
b0000000000011101 '
0*
1+
#7
0+
#8
1)
1+
b0000000000011111 ,
#9
0+
#10
1+
b0000010 0
#11
0+
#12
b0000001 %
1+
b0000100 0
#13
0+
#14
b0000000 %
1+
b0001001 0
#15
0+
#16
b0001000 %
1+
b0000000000011110 ,
b0010010 0
#17
0+
#18
b0000111 %
1+
b0000000000011111 ,
b0100100 0
#19
0+
#20
b0000110 %
1+
b1001001 0
#21
0+
#22
b0000101 %
1+
b0010011 0
#23
0+
#24
b0000100 %
1+
b0100110 0
#25
0+
#26
b0000011 %
1+
b1001101 0
#27
0+
#28
b0000010 %
1+
b0011010 0
#29
0+
#30
b0000001 %
1+
b0000000000011110 ,
b0110100 0
#31
0+
#32
b0000000 %
1+
b0000000000011111 ,
b1101001 0
#33
0+
#34
b1101000 %
1+
b1010011 0
#35
0+
#36
b1100111 %
1+
b0100111 0
#37
0+
#38
b1100110 %
1+
b1001111 0
#39
0+
#40
b1100101 %
1+
b0011110 0
#41
0+
#42
b1100100 %
1+
b0000000000011100 ,
b0111101 0
#43
0+
#44
b1100011 %
1+
b0000000000011110 ,
b1111011 0
#45
0+
#46
b1100010 %
1+
b0000000000011111 ,
b1110111 0
#47
0+
#48
b1100001 %
1+
b1101110 0
#49
0+
#50
b1100000 %
1+
b0000000000011110 ,
b1011100 0
#51
0+
#52
b1011111 %
1+
b0000000000011111 ,
b0111000 0
#53
0+
#54
b1011110 %
1+
b1110000 0
#55
0+
#56
b1011101 %
1+
b1100001 0
#57
0+
#58
b1011100 %
1+
b1000011 0
#59
0+
#60
b1011011 %
1+
b0000111 0
#61
0+
#62
b1011010 %
1+
b0001111 0
#63
0+
#64
b1011001 %
1+
b0011111 0
#65
0+
#66
b1011000 %
1+
b0111111 0
#67
0+
#68
b1010111 %
1+
b0000000000011110 ,
b1111111 0
#69
0+
#70
b1010110 %
1+
b0000000000011111 ,
b1111110 0
#71
0+
#72
b1010101 %
1+
b1111100 0
#73
0+
#74
b1010100 %
1+
b1111000 0
#75
0+
#76
b1010011 %
1+
b1110001 0
#77
0+
#78
b1010010 %
1+
b1100011 0
#79
0+
#80
b1010001 %
1+
b0000000000011101 ,
b1000111 0
#81
0+
#82
b1010000 %
1+
b0000000000011111 ,
b0001110 0
#83
0+
#84
b1001111 %
1+
b0011101 0
#85
0+
#86
b1001110 %
1+
b0111011 0
#87
0+
#88
b1001101 %
1+
b1110110 0
#89
0+
#90
b1001100 %
1+
b1101100 0
#91
0+
#92
b1001011 %
1+
b1011000 0
#93
0+
#94
b1001010 %
1+
b0110001 0
#95
0+
#96
b1001001 %
1+
b1100010 0
#97
0+
#98
b1001000 %
1+
b1000101 0
#99
0+
#100
b1000111 %
1+
b0001010 0
#101
0+
#102
b1000110 %
1+
b0010100 0
#103
0+
#104
b1000101 %
1+
b0101001 0
#105
0+
#106
b1000100 %
1+
b0000000000011110 ,
b1010010 0
#107
0+
#108
b1000011 %
1+
b0000000000011111 ,
b0100101 0
#109
0+
#110
b1000010 %
1+
b1001011 0
#111
0+
#112
b1000001 %
1+
b0010111 0
#113
0+
#114
b1000000 %
1+
b0101111 0
#115
0+
#116
b0111111 %
1+
b1011111 0
#117
0+
#118
b0111110 %
1+
b0000000000011100 ,
b0111110 0
#119
0+
#120
b0111101 %
1+
b0000000000011111 ,
b1111101 0
#121
0+
#122
b0111100 %
1+
b0000000000011110 ,
b1111010 0
#123
0+
#124
b0111011 %
1+
b0000000000011111 ,
b1110101 0
#125
0+
#126
b0111010 %
1+
b0000000000011110 ,
b1101010 0
#127
0+
#128
b0111001 %
1+
b0000000000011111 ,
b1010101 0
#129
0+
#130
b0111000 %
1+
b0101010 0
#131
0+
#132
b0110111 %
1+
b1010100 0
#133
0+
#134
b0110110 %
1+
b0000000000011110 ,
b0101000 0
#135
0+
#136
b0110101 %
1+
b0000000000011111 ,
b1010000 0
#137
0+
#138
b0110100 %
1+
b0100001 0
#139
0+
#140
b0110011 %
1+
b1000010 0
#141
0+
#142
b0110010 %
1+
b0000101 0
#143
0+
#144
b0110001 %
1+
b0000000000011110 ,
b0001011 0
#145
0+
#146
b0110000 %
1+
b0000000000011111 ,
b0010110 0
#147
0+
#148
b0101111 %
1+
b0101101 0
#149
0+
#150
b0101110 %
1+
b0000000000011001 ,
b1011011 0
#151
0+
#152
b0101101 %
1+
b0000000000011110 ,
b0110111 0
#153
0+
#154
b0101100 %
1+
b1101111 0
#155
0+
#156
b0101011 %
1+
b0000000000010101 ,
1-
b1011110 0
#157
0+
1.
#158
b0101010 %
b0000000000011100 '
1+
b0000000000011110 ,
0-
b0111100 0
#159
0+
#160
b0101001 %
b0000000000011011 '
1+
b0000000000011111 ,
b1111001 0
#161
0+
#162
b0101000 %
b0000000000011010 '
1+
b0000000000011110 ,
b1110011 0
#163
0+
#164
b0100111 %
b0000000000011001 '
1+
b1100111 0
#165
0+
#166
b0100110 %
b0000000000011000 '
1+
b0000000000011111 ,
b1001110 0
#167
0+
#168
b0100101 %
b0000000000010111 '
1+
b0000000000011011 ,
b0011100 0
#169
0+
#170
b0100100 %
b0000000000010110 '
1+
b0000000000011110 ,
b0111001 0
#171
0+
#172
b0100011 %
b0000000000010101 '
1+
b1110010 0
#173
0+
#174
b0100010 %
b0000000000010100 '
1+
b1100101 0
#175
0+
#176
b0100001 %
b0000000000010011 '
1+
b1001010 0
#177
0+
#178
b0100000 %
b0000000000010010 '
1+
b0000000000011111 ,
b0010101 0
#179
0+
#180
b0011111 %
b0000000000010001 '
1+
b0101011 0
#181
0+
#182
b0011110 %
b0000000000010000 '
1+
b0000000000011100 ,
b1010110 0
#183
0+
#184
b0011101 %
b0000000000001111 '
1+
b0000000000011111 ,
b0101100 0
#185
0+
#186
b0011100 %
b0000000000001110 '
1+
b1011001 0
#187
0+
#188
b0011011 %
b0000000000001101 '
1+
b0110011 0
#189
0+
#190
b0011010 %
b0000000000001100 '
1+
b0000000000011110 ,
b1100110 0
#191
0+
#192
b0011001 %
b0000000000001011 '
1+
b0000000000011111 ,
b1001100 0
#193
0+
#194
b0011000 %
b0000000000001010 '
1+
b0000000000011100 ,
b0011000 0
#195
0+
#196
b0010111 %
b0000000000001001 '
1+
b0000000000011110 ,
b0110000 0
#197
0+
#198
b0010110 %
b0000000000001000 '
1+
b1100000 0
#199
0+
#200
b0010101 %
b0000000000000111 '
1+
b1000001 0
#201
0+
#202
b0010100 %
b0000000000000110 '
1+
b0000011 0
#203
0+
#204
b0010011 %
b0000000000000101 '
1+
b0000110 0
#205
0+
#206
b0010010 %
b0000000000000100 '
1+
b0000000000011011 ,
b0001101 0
#207
0+
#208
b0010001 %
b0000000000000011 '
1+
b0000000000011110 ,
b0011011 0
#209
0+
#210
b0010000 %
b0000000000000010 '
1+
b0110110 0
#211
0+
#212
b0001111 %
b0000000000000001 '
1+
b1101101 0
#213
0+
#214
b0001110 %
b0000000000000000 '
1+
b0000000000011111 ,
b1011010 0
#215
0+
#216
1$
b0001101 %
b0000000000011111 '
1+
b0000000000011110 ,
b0110101 0
12
#217
0+
#218
0$
b0001100 %
b0000000000011110 '
b00000011 (
1+
b1101011 0
02
b00000011 3
#219
0+
#220
b0001011 %
b0000000000011101 '
1+
b0000000000011100 ,
b1010111 0
#221
0+
#222
b0001010 %
b0000000000011100 '
1+
b0000000000011111 ,
b0101110 0
#223
0+
#224
b0001001 %
b0000000000011011 '
1+
b0000000000011110 ,
b1011101 0
#225
0+
#226
b0001000 %
b0000000000011010 '
1+
b0000000000011111 ,
b0111010 0
#227
0+
#228
b0000111 %
b0000000000011001 '
1+
b1110100 0
#229
0+
#230
b0000110 %
b0000000000011000 '
1+
b0000000000011011 ,
b1101000 0
#231
0+
#232
b0000101 %
b0000000000010111 '
1+
b0000000000011110 ,
b1010001 0
#233
0+
#234
b0000100 %
b0000000000010110 '
1+
b0100011 0
#235
0+
#236
b0000011 %
b0000000000010101 '
1+
b0000000000011111 ,
b1000110 0
#237
0+
#238
b0000010 %
b0000000000010100 '
1+
b0000000000011110 ,
b0001100 0
#239
0+
#240
b0000001 %
b0000000000010011 '
1+
b0000000000011111 ,
b0011001 0
#241
0+
#242
b0000000 %
b0000000000010010 '
1+
b0000000000011011 ,
b0110010 0
#243
0+
#244
b0110001 %
b0000000000010001 '
1+
b0000000000011110 ,
b1100100 0
#245
0+
#246
b0110000 %
b0000000000010000 '
1+
b0000000000011111 ,
b1001000 0
#247
0+
#248
b0101111 %
b0000000000001111 '
1+
b0000000000011110 ,
b0010001 0
#249
0+
#250
b0101110 %
b0000000000001110 '
1+
b0000000000011111 ,
b0100010 0
#251
0+
#252
b0101101 %
b0000000000001101 '
1+
b1000100 0
#253
0+
#254
b0101100 %
b0000000000001100 '
1+
b0000000000011011 ,
b0001000 0
#255
0+
#256
b0101011 %
b0000000000001011 '
1+
b0000000000011111 ,
b0010000 0
#257
0+
#258
b0101010 %
b0000000000001010 '
1+
b0000000000011110 ,
b0100000 0
#259
0+
#260
b0101001 %
b0000000000001001 '
1+
b0000000000011111 ,
b1000000 0
#261
0+
#262
b0101000 %
b0000000000001000 '
1+
b0000000000011110 ,
b0000001 0
#263
0+
#264
b0100111 %
b0000000000000111 '
1+
b0000010 0
#265
0+
#266
b0100110 %
b0000000000000110 '
1+
b0000000000011101 ,
b0000100 0
#267
0+
#268
b0100101 %
b0000000000000101 '
1+
b0000000000011111 ,
b0001001 0
#269
0+
#270
b0100100 %
b0000000000000100 '
1+
b0000000000011110 ,
b0010010 0
#271
0+
#272
b0100011 %
b0000000000000011 '
1+
b0000000000011111 ,
b0100100 0
#273
0+
#274
b0100010 %
b0000000000000010 '
1+
b0000000000011110 ,
b1001001 0
#275
0+
#276
b0100001 %
b0000000000000001 '
1+
b0000000000011111 ,
b0010011 0
#277
0+
#278
b0100000 %
b0000000000000000 '
1+
b0000000000011110 ,
b0100110 0
#279
0+
#280
1$
b0011111 %
b0000000000011110 '
1+
b0000000000011011 ,
b1001101 0
12
#281
0+
#282
0$
b0011110 %
b0000000000011101 '
b00000111 (
1+
b0000000000011111 ,
b0011010 0
02
b00000111 3
#283
0+
#284
b0011101 %
b0000000000011100 '
1+
b0000000000011101 ,
b0110100 0
#285
0+
#286
b0011100 %
b0000000000011011 '
1+
b0000000000011111 ,
b1101001 0
#287
0+
#288
b0011011 %
b0000000000011010 '
1+
b1010011 0
#289
0+
#290
b0011010 %
b0000000000011001 '
1+
b0000000000011110 ,
b0100111 0
#291
0+
#292
b0011001 %
b0000000000011000 '
1+
b0000000000011101 ,
b1001111 0
#293
0+
#294
b0011000 %
b0000000000010111 '
1+
b0000000000011111 ,
b0011110 0
#295
0+
#296
b0010111 %
b0000000000010110 '
1+
b0111101 0
#297
0+
#298
b0010110 %
b0000000000010101 '
1+
b0000000000011110 ,
b1111011 0
#299
0+
#300
b0010101 %
b0000000000010100 '
1+
b0000000000011111 ,
b1110111 0
#301
0+
#302
b0010100 %
b0000000000010011 '
1+
b1101110 0
#303
0+
#304
b0010011 %
b0000000000010010 '
1+
b0000000000011110 ,
b1011100 0
#305
0+
#306
b0010010 %
b0000000000010001 '
1+
b0111000 0
#307
0+
#308
b0010001 %
b0000000000010000 '
1+
b0000000000011111 ,
b1110000 0
#309
0+
#310
b0010000 %
b0000000000001111 '
1+
b0000000000011110 ,
b1100001 0
#311
0+
#312
b0001111 %
b0000000000001110 '
1+
b1000011 0
#313
0+
#314
b0001110 %
b0000000000001101 '
1+
b0000111 0
#315
0+
#316
b0001101 %
b0000000000001100 '
1+
b0000000000011011 ,
b0001111 0
#317
0+
#318
b0001100 %
b0000000000001011 '
1+
b0000000000011111 ,
b0011111 0
#319
0+
#320
b0001011 %
b0000000000001010 '
1+
b0000000000011110 ,
b0111111 0
#321
0+
#322
b0001010 %
b0000000000001001 '
1+
b1111111 0
#323
0+
#324
b0001001 %
b0000000000001000 '
1+
b0000000000011111 ,
b1111110 0
#325
0+
#326
b0001000 %
b0000000000000111 '
1+
b0000000000011110 ,
b1111100 0
#327
0+
#328
b0000111 %
b0000000000000110 '
1+
b0000000000011011 ,
b1111000 0
#329
0+
#330
b0000110 %
b0000000000000101 '
1+
b0000000000011110 ,
b1110001 0
#331
0+
#332
b0000101 %
b0000000000000100 '
1+
b1100011 0
#333
0+
#334
b0000100 %
b0000000000000011 '
1+
b0000000000011111 ,
b1000111 0
#335
0+
#336
b0000011 %
b0000000000000010 '
1+
b0000000000011110 ,
b0001110 0
#337
0+
#338
b0000010 %
b0000000000000001 '
1+
b0000000000011111 ,
b0011101 0
#339
0+
#340
b0000001 %
b0000000000000000 '
1+
b0000000000011110 ,
b0111011 0
#341
0+
#342
1$
b0000000 %
b0000000000011110 '
1+
b0000000000011111 ,
b1110110 0
12
#343
0+
#344
0$
b1110101 %
b0000000000011101 '
b00001111 (
1+
b1101100 0
02
b00001111 3
#345
0+
#346
b1110100 %
b0000000000011100 '
1+
b0000000000011100 ,
b1011000 0
#347
0+
#348
b1110011 %
b0000000000011011 '
1+
b0000000000011110 ,
b0110001 0
#349
0+
#350
b1110010 %
b0000000000011010 '
1+
b1100010 0
#351
0+
#352
b1110001 %
b0000000000011001 '
1+
b0000000000011011 ,
b1000101 0
#353
0+
#354
b1110000 %
b0000000000011000 '
1+
b0000000000011110 ,
b0001010 0
#355
0+
#356
b1101111 %
b0000000000010111 '
1+
b0010100 0
#357
0+
#358
b1101110 %
b0000000000010110 '
1+
b0101001 0
#359
0+
#360
b1101101 %
b0000000000010101 '
1+
b1010010 0
#361
0+
#362
b1101100 %
b0000000000010100 '
1+
b0100101 0
#363
0+
#364
b1101011 %
b0000000000010011 '
1+
b1001011 0
#365
0+
#366
b1101010 %
b0000000000010010 '
1+
b0000000000011100 ,
b0010111 0
#367
0+
#368
b1101001 %
b0000000000010001 '
1+
b0000000000011110 ,
b0101111 0
#369
0+
#370
b1101000 %
b0000000000010000 '
1+
b1011111 0
#371
0+
#372
b1100111 %
b0000000000001111 '
1+
b0111110 0
#373
0+
#374
b1100110 %
b0000000000001110 '
1+
b1111101 0
#375
0+
#376
b1100101 %
b0000000000001101 '
1+
b1111010 0
#377
0+
#378
b1100100 %
b0000000000001100 '
1+
b0000000000011011 ,
b1110101 0
#379
0+
#380
b1100011 %
b0000000000001011 '
1+
b0000000000011111 ,
b1101010 0
#381
0+
#382
b1100010 %
b0000000000001010 '
1+
b0000000000011110 ,
b1010101 0
#383
0+
#384
b1100001 %
b0000000000001001 '
1+
b0101010 0
#385
0+
#386
b1100000 %
b0000000000001000 '
1+
b1010100 0
#387
0+
#388
b1011111 %
b0000000000000111 '
1+
b0101000 0
#389
0+
#390
b1011110 %
b0000000000000110 '
1+
b1010000 0
#391
0+
#392
b1011101 %
b0000000000000101 '
1+
b0100001 0
#393
0+
#394
b1011100 %
b0000000000000100 '
1+
b1000010 0
#395
0+
#396
b1011011 %
b0000000000000011 '
1+
b0000101 0
#397
0+
#398
b1011010 %
b0000000000000010 '
1+
b0001011 0
#399
0+
#400
b1011001 %
b0000000000000001 '
1+
b0010110 0
#401
0+
#402
b1011000 %
b0000000000000000 '
1+
b0101101 0
#403
0+
#404
1$
b1010111 %
b0000000000011110 '
1+
b1011011 0
12
#405
0+
#406
0$
b1010110 %
b0000000000011101 '
b00011111 (
1+
b0110111 0
02
b00011111 3
#407
0+
#408
b1010101 %
b0000000000011100 '
1+
b0000000000011100 ,
b1101111 0
#409
0+
#410
b1010100 %
b0000000000011011 '
1+
b0000000000011110 ,
b1011110 0
#411
0+
#412
b1010011 %
b0000000000011010 '
1+
b0111100 0
#413
0+
#414
b1010010 %
b0000000000011001 '
1+
b0000000000011100 ,
b1111001 0
#415
0+
#416
b1010001 %
b0000000000011000 '
1+
b0000000000011110 ,
b1110011 0
#417
0+
#418
b1010000 %
b0000000000010111 '
1+
b1100111 0
#419
0+
#420
b1001111 %
b0000000000010110 '
1+
b1001110 0
#421
0+
#422
b1001110 %
b0000000000010101 '
1+
b0011100 0
#423
0+
#424
b1001101 %
b0000000000010100 '
1+
b0111001 0
#425
0+
#426
b1001100 %
b0000000000010011 '
1+
b0000000000011011 ,
b1110010 0
#427
0+
#428
b1001011 %
b0000000000010010 '
1+
b0000000000011110 ,
b1100101 0
#429
0+
#430
b1001010 %
b0000000000010001 '
1+
b1001010 0
#431
0+
#432
b1001001 %
b0000000000010000 '
1+
b0010101 0
#433
0+
#434
b1001000 %
b0000000000001111 '
1+
b0101011 0
#435
0+
#436
b1000111 %
b0000000000001110 '
1+
b1010110 0
#437
0+
#438
b1000110 %
b0000000000001101 '
1+
b0000000000011011 ,
b0101100 0
#439
0+
#440
b1000101 %
b0000000000001100 '
1+
b0000000000011110 ,
b1011001 0
#441
0+
#442
b1000100 %
b0000000000001011 '
1+
b0110011 0
#443
0+
#444
b1000011 %
b0000000000001010 '
1+
b1100110 0
#445
0+
#446
b1000010 %
b0000000000001001 '
1+
b1001100 0
#447
0+
#448
b1000001 %
b0000000000001000 '
1+
b0011000 0
#449
0+
#450
b1000000 %
b0000000000000111 '
1+
b0000000000011011 ,
b0110000 0
#451
0+
#452
b0111111 %
b0000000000000110 '
1+
b0000000000011110 ,
b1100000 0
#453
0+
#454
b0111110 %
b0000000000000101 '
1+
b1000001 0
#455
0+
#456
b0111101 %
b0000000000000100 '
1+
b0000000000011101 ,
b0000011 0
#457
0+
#458
b0111100 %
b0000000000000011 '
1+
b0000000000011100 ,
b0000110 0
#459
0+
#460
b0111011 %
b0000000000000010 '
1+
b0000000000011110 ,
b0001101 0
#461
0+
#462
b0111010 %
b0000000000000001 '
1+
b0000000000011100 ,
b0011011 0
#463
0+
#464
b0111001 %
b0000000000000000 '
1+
b0000000000011111 ,
b0110110 0
#465
0+
#466
1$
b0111000 %
b0000000000011111 '
1+
b0000000000011110 ,
b1101101 0
12
#467
0+
#468
0$
b0110111 %
b0000000000011110 '
b00111111 (
1+
b1011010 0
02
b00111111 3
#469
0+
#470
b0110110 %
b0000000000011101 '
1+
b0000000000011100 ,
b0110101 0
#471
0+
#472
b0110101 %
b0000000000011100 '
1+
b0000000000011110 ,
b1101011 0
#473
0+
#474
b0110100 %
b0000000000011011 '
1+
b0000000000011011 ,
b1010111 0
#475
0+
#476
b0110011 %
b0000000000011010 '
1+
b0000000000011110 ,
b0101110 0
#477
0+
#478
b0110010 %
b0000000000011001 '
1+
b1011101 0
#479
0+
#480
b0110001 %
b0000000000011000 '
1+
b0111010 0
#481
0+
#482
b0110000 %
b0000000000010111 '
1+
b0000000000011101 ,
b1110100 0
#483
0+
#484
b0101111 %
b0000000000010110 '
1+
b0000000000011110 ,
b1101000 0
#485
0+
#486
b0101110 %
b0000000000010101 '
1+
b0000000000011011 ,
b1010001 0
#487
0+
#488
b0101101 %
b0000000000010100 '
1+
b0000000000011110 ,
b0100011 0
#489
0+
#490
b0101100 %
b0000000000010011 '
1+
b1000110 0
#491
0+
#492
b0101011 %
b0000000000010010 '
1+
b0001100 0
#493
0+
#494
b0101010 %
b0000000000010001 '
1+
b0011001 0
#495
0+
#496
b0101001 %
b0000000000010000 '
1+
b0110010 0
#497
0+
#498
b0101000 %
b0000000000001111 '
1+
b0000000000011011 ,
b1100100 0
#499
0+
#500
b0100111 %
b0000000000001110 '
1+
b0000000000011110 ,
b1001000 0
#501
0+
#502
b0100110 %
b0000000000001101 '
1+
b0010001 0
#503
0+
#504
b0100101 %
b0000000000001100 '
1+
b0100010 0
#505
0+
#506
b0100100 %
b0000000000001011 '
1+
b1000100 0
#507
0+
#508
b0100011 %
b0000000000001010 '
1+
b0001000 0
#509
0+
#510
b0100010 %
b0000000000001001 '
1+
b0000000000011011 ,
b0010000 0
#511
0+
#512
b0100001 %
b0000000000001000 '
1+
b0000000000011110 ,
b0100000 0
#513
0+
#514
b0100000 %
b0000000000000111 '
1+
b1000000 0
#515
0+
#516
b0011111 %
b0000000000000110 '
1+
b0000001 0
#517
0+
#518
b0011110 %
b0000000000000101 '
1+
b0000010 0
#519
0+
#520
b0011101 %
b0000000000000100 '
1+
b0000100 0
#521
0+
#522
b0011100 %
b0000000000000011 '
1+
b0000000000011011 ,
b0001001 0
#523
0+
#524
b0011011 %
b0000000000000010 '
1+
b0000000000011110 ,
b0010010 0
#525
0+
#526
b0011010 %
b0000000000000001 '
1+
b0100100 0
#527
0+
#528
b0011001 %
b0000000000000000 '
1+
b1001001 0
#529
0+
#530
1$
b0011000 %
b0000000000011110 '
1+
b0010011 0
12
#531
0+
#532
0$
b0010111 %
b0000000000011101 '
b01111111 (
1+
b0100110 0
02
b01111111 3
#533
0+
#534
b0010110 %
b0000000000011100 '
1+
b0000000000011001 ,
b1001101 0
#535
0+
#536
b0010101 %
b0000000000011011 '
1+
b0000000000011101 ,
b0011010 0
#537
0+
#538
b0010100 %
b0000000000011010 '
1+
b0000000000011110 ,
b0110100 0
#539
0+
#540
b0010011 %
b0000000000011001 '
1+
b1101001 0
#541
0+
#542
b0010010 %
b0000000000011000 '
1+
b1010011 0
#543
0+
#544
b0010001 %
b0000000000010111 '
1+
b0100111 0
#545
0+
#546
b0010000 %
b0000000000010110 '
1+
b0000000000011011 ,
b1001111 0
#547
0+
#548
b0001111 %
b0000000000010101 '
1+
b0000000000011110 ,
b0011110 0
#549
0+
#550
b0001110 %
b0000000000010100 '
1+
b0111101 0
#551
0+
#552
b0001101 %
b0000000000010011 '
1+
b0000000000011101 ,
b1111011 0
#553
0+
#554
b0001100 %
b0000000000010010 '
1+
b0000000000011110 ,
b1110111 0
#555
0+
#556
b0001011 %
b0000000000010001 '
1+
b1101110 0
#557
0+
#558
b0001010 %
b0000000000010000 '
1+
b0000000000011011 ,
b1011100 0
#559
0+
#560
b0001001 %
b0000000000001111 '
1+
b0000000000011110 ,
b0111000 0
#561
0+
#562
b0001000 %
b0000000000001110 '
1+
b0000000000011101 ,
b1110000 0
#563
0+
#564
b0000111 %
b0000000000001101 '
1+
b1100001 0
#565
0+
#566
b0000110 %
b0000000000001100 '
1+
b0000000000011110 ,
b1000011 0
#567
0+
#568
b0000101 %
b0000000000001011 '
1+
b0000111 0
#569
0+
#570
b0000100 %
b0000000000001010 '
1+
b0000000000011011 ,
b0001111 0
#571
0+
#572
b0000011 %
b0000000000001001 '
1+
b0000000000011110 ,
b0011111 0
#573
0+
#574
b0000010 %
b0000000000001000 '
1+
b0111111 0
#575
0+
#576
b0000001 %
b0000000000000111 '
1+
b1111111 0
#577
0+
#578
b0000000 %
b0000000000000110 '
1+
b1111110 0
#579
0+
#580
b1111101 %
b0000000000000101 '
1+
b1111100 0
#581
0+
#582
b1111100 %
b0000000000000100 '
1+
b0000000000011011 ,
b1111000 0
#583
0+
#584
b1111011 %
b0000000000000011 '
1+
b0000000000011110 ,
b1110001 0
#585
0+
#586
b1111010 %
b0000000000000010 '
1+
b0000000000011101 ,
b1100011 0
#587
0+
#588
b1111001 %
b0000000000000001 '
1+
b0000000000011110 ,
b1000111 0
#589
0+
#590
b1111000 %
b0000000000000000 '
1+
b0001110 0
#591
0+
#592
1$
b1110111 %
b0000000000011110 '
1+
b0011101 0
12
#593
0+
#594
0$
b1110110 %
b0000000000011101 '
b11111111 (
1+
b0000000000011011 ,
0.
1/
b0111011 0
b00000000000000000000000000000001 1
02
b11111111 3
#595
0+
#596
b0111010 %
b00000000000000000000000000000001 &
1+
b0000000000011100 ,
b1110110 0
#597
0+
#598
b1110101 %
1+
b0000000000011101 ,
b1101100 0
#599
0+
#600
b1101011 %
1+
b0000000000011110 ,
b1011000 0
#601
0+
#602
b1010111 %
1+
b0110001 0
#603
0+
#604
b0110000 %
1+
b0000000000011101 ,
b1100010 0
#605
0+
#606
b1100001 %
1+
b1000101 0
#607
0+
#608
b1000100 %
1+
b0001010 0
#609
0+
#610
b0001001 %
1+
b0010100 0
#611
0+
#612
b0010011 %
1+
b0101001 0
#613
0+
#614
b0101000 %
1+
b1010010 0
#615
0+
#616
b1010001 %
1+
b0000000000011110 ,
b0100101 0
#617
0+
#618
b0100100 %
1+
b0000000000011100 ,
b1001011 0
#619
0+
#620
b1001010 %
1+
b0000000000011110 ,
b0010111 0
#621
0+
#622
b0010110 %
1+
b0000000000011101 ,
b0101111 0
#623
0+
#624
b0101110 %
1+
b1011111 0
#625
0+
#626
b1011110 %
1+
b0000000000011110 ,
b0111110 0
#627
0+
#628
b0111101 %
1+
b0000000000011101 ,
b1111101 0
#629
0+
#630
b1111100 %
1+
b0000000000011100 ,
b1111010 0
#631
0+
#632
b1111001 %
1+
b0000000000011101 ,
b1110101 0
#633
0+
#634
b1110100 %
1+
b0000000000011110 ,
b1101010 0
#635
0+
#636
b1101001 %
1+
b1010101 0
#637
0+
#638
b1010100 %
1+
b0101010 0
#639
0+
#640
b0101001 %
1+
b1010100 0
#641
0+
#642
b1010011 %
1+
b0000000000011011 ,
b0101000 0
#643
0+
#644
b0100111 %
1+
b0000000000011101 ,
b1010000 0
#645
0+
#646
b1001111 %
1+
b0000000000011110 ,
b0100001 0
#647
0+
#648
b0100000 %
1+
b1000010 0
#649
0+
#650
b1000001 %
1+
b0000101 0
#651
0+
#652
b0000100 %
1+
b0001011 0
#653
0+
#654
b0001010 %
1+
b0000000000011011 ,
b0010110 0
#655
0+
#656
b0010101 %
1+
b0000000000011101 ,
b0101101 0
#657
0+
#658
b0101100 %
1+
b1011011 0
#659
0+
#660
b1011010 %
1+
b0000000000011110 ,
b0110111 0
#661
0+
#662
b0110110 %
1+
b0000000000011101 ,
b1101111 0
#663
0+
#664
b1101110 %
1+
b0000000000011110 ,
b1011110 0
#665
0+
#666
b1011101 %
1+
b0000000000011100 ,
b0111100 0
#667
0+
#668
b0111011 %
1+
b0000000000011101 ,
b1111001 0
#669
0+
#670
b1111000 %
1+
b1110011 0
#671
0+
#672
b1110010 %
1+
b1100111 0
#673
0+
#674
b1100110 %
1+
b1001110 0
#675
0+
#676
b1001101 %
1+
b0000000000011110 ,
b0011100 0
#677
0+
#678
b0011011 %
1+
b0000000000011101 ,
b0111001 0
#679
0+
#680
b0111000 %
1+
b0000000000011110 ,
b1110010 0
#681
0+
#682
b1110001 %
1+
b0000000000011101 ,
b1100101 0
#683
0+
#684
b1100100 %
1+
b0000000000011110 ,
b1001010 0
#685
0+
#686
b1001001 %
1+
b0000000000011101 ,
b0010101 0
#687
0+
#688
b0010100 %
1+
b0101011 0
#689
0+
#690
b0101010 %
1+
b0000000000011011 ,
b1010110 0
#691
0+
#692
b1010101 %
1+
b0000000000011101 ,
b0101100 0
#693
0+
#694
b0101011 %
1+
b0000000000011110 ,
b1011001 0
#695
0+
#696
b1011000 %
1+
b0000000000011101 ,
b0110011 0
#697
0+
#698
b0110010 %
1+
b0000000000011110 ,
b1100110 0
#699
0+
#700
b1100101 %
1+
b0000000000011101 ,
b1001100 0
#701
0+
#702
b1001011 %
1+
b0000000000011100 ,
b0011000 0
#703
0+
#704
b0010111 %
1+
b0000000000011101 ,
b0110000 0
#705
0+
#706
b0101111 %
1+
b1100000 0
#707
0+
#708
b1011111 %
1+
b0000000000011110 ,
b1000001 0
#709
0+
#710
b1000000 %
1+
b0000011 0
#711
0+
#712
b0000010 %
1+
b0000110 0
#713
0+
#714
b0000101 %
1+
b0000000000011100 ,
b0001101 0
#715
0+
#716
b0001100 %
1+
b0000000000011101 ,
b0011011 0
#717
0+
